INDEX VERSION 1.126+C:\Users\Hawmalt\Desktop\UmassStuff\CS383\TetrisAI\BattleBlockEngine\.metadata\.plugins\org.eclipse.jdt.core
1729207038.index
1195470921.index
2035554723.index
3190770268.index
1929396291.index
3092092397.index
2998212994.index
4044200546.index
4265187257.index
221081594.index
746519164.index
3193006064.index
3349437070.index
3527009751.index
4146572984.index
1638338953.index
1570939741.index
3899914096.index
2589001729.index
